// Jest Snapshot v1, https://goo.gl/fbAQLP

exports[`should render Header correctly 1`] = `
<header
  className="header"
>
  <div
    className="content-container"
  >
    <div
      className="header__content"
    >
      <div
        className="header__title"
      >
        Hi 
        mathieu
         !
      </div>
      <Link
        className="header__title"
        replace={false}
        to="/"
      >
        <p>
          My Books
        </p>
      </Link>
      <Link
        className="header__title"
        replace={false}
        to="/books"
      >
        <p>
          All Books
        </p>
      </Link>
      <p
        className="button--link log-out-button"
        onClick={[Function]}
      >
        Log Out
      </p>
    </div>
  </div>
</header>
`;
